866465 304948 525
607610 247896 470
420886 12229 449
42697 657373 509
950247 685977 525
858169 738978 525
28108 2093 308
33392 889172 525
496826 232392 449
757051 227834 509
314662 876411 525
339690 395607 441
744917 94084 509
161678 487252 449
515179 64170 470
214077 256804 443
837659 418917 509
719171 847259 525
683248 607593 509
960318 519164 525
721214 863084 525
728576 451251 509
910515 349895 525
392084 419987 449
53085 528582 470
828945 514358 509
874600 891070 445
858182 906417 445
192583 4478 383
234877 628367 509
850340 137337 525
13873 396495 443
214999 697338 509
621906 284362 470
353745 116320 443
950698 49294 525
106880 924806 525
763568 883774 525
196166 256550 443
387964 788929 509
704110 259996 509
334239 889426 525
22258 419976 449
879172 746455 525
330634 495066 449
672203 87552 509
265575 875873 525
203694 538783 470
540143 857437 525
927330 496171 525
627586 850215 525
873279 4373 525
531793 540420 377
977353 967847 458
22554 618600 470
812656 138959 509
828740 160545 509
956719 116878 525
139274 127598 344
769560 430228 509
359937 176471 443
138887 534339 470
378900 614397 470
42001 942888 525
225046 759404 509
864663 799791 525
580206 686377 509
503009 64761 449
279647 870006 525
795291 760897 468
727666 506062 509
350099 214278 443
634319 759274 504
715187 332522 509
57481 990824 525
863249 158446 525
473384 112503 449
812612 863360 525
253939 809322 509
785741 931327 525
523813 833165 509
335114 995791 525
150436 762711 509
918516 909113 476
137736 659721 509
606956 137818 470
978117 384308 525
110630 223783 386
900284 943423 507
476238 570176 470
230589 425178 449
269270 901283 525
116666 424170 449
294622 441865 449
154379 111631 375
447689 899629 525
681539 93901 509
488676 596279 470
303652 930110 525
471279 19799 449
52972 719808 509
27854 463320 449
874150 284426 525
993289 925515 507
131983 835168 509
999406 953695 458
367885 686332 509
896025 644643 525
464975 502099 426
806997 123050 509
302601 64272 443
10740 64712 340
972122 127066 525
149508 281328 443
914234 166011 525
204002 193492 360
346605 517942 470
274523 24515 443
573426 247505 470
832144 462627 509
7305 109791 354
612465 576240 434
328460 984690 525
595453 161657 470
118239 917171 525
300961 882580 525
427334 626637 509
133085 894347 525
753572 345508 509
437519 714037 509
80298 713818 509
556504 181940 470
7970 691975 509
34838 643563 509
636976 815861 504
83645 417829 449
613323 756603 509
389711 46263 443
987548 107423 525
394178 158289 443
557494 640359 509
205895 510610 449
666799 13058 509
266942 524256 470
792705 466939 509
159883 492325 449
982911 727348 525
697058 890457 525
70521 203483 383
973576 474468 525
263079 257231 345
303109 372627 441
188249 297830 443
359074 259142 441
928207 537315 525
380645 683952 509
93762 304495 443
306491 716337 509
263397 472994 449
291375 605291 470
121543 191536 383
92516 76992 351
441548 689575 509
98445 609034 470
103764 342872 443
707788 423672 509
235640 903846 525
843591 844673 357
801883 266896 509
17694 194684 383
868060 327835 525
374599 743124 509
924168 500964 525
824407 62960 509
74421 544661 470
381251 470589 449
758663 928901 525
534329 890027 525
106485 602147 470
52665 604435 470
127917 626805 509
866283 904167 445
957774 376509 525
995392 957581 458
672357 326545 509
955792 421960 525
166246 173950 347
377112 999814 525
279511 890341 525
481346 22235 449
807165 496582 509
303553 698882 509
303817 160457 443
378766 824902 509
715410 700039 504
837425 215753 509
983915 342243 525
842730 59511 525
163348 553675 470
165335 678433 509
337245 438897 449
827477 761765 468
765138 388583 509
730310 753864 424
111338 270931 443
824612 699667 504
6792 185251 383
199872 175827 365
9346 595519 470
423395 308652 449
730333 491974 509
290384 328228 384
556370 8644 470
759602 756898 362
759505 303619 509
563063 616870 447
297648 909563 525
797512 649472 504
672680 63272 509
192534 246075 443
504249 867893 525
251909 188451 443
887158 499769 525
202659 950158 525
351112 579791 470
533995 440675 470
199112 16454 383
383799 767195 509
968285 137286 525
442127 138073 449
272237 494213 449
110277 170869 383
313534 843388 525
505714 849269 525
238820 12244 443
698794 463595 509
157938 784034 509
633353 13552 509
324631 243307 407
176453 639575 509
162186 542494 470
751367 83154 509
341304 406425 441
894781 674478 525
165379 130826 383
59107 194023 383
219513 643136 509
588828 470258 470
802105 610188 509
630122 292229 509
