21270 701194 509
306526 455217 449
206761 931660 525
637268 889519 525
396521 741691 509
274676 470050 449
706608 781104 468
103787 790384 509
80173 626570 509
126197 810137 509
776383 856369 525
760118 989151 525
888563 893253 370
850637 899725 445
188756 311616 443
957836 976753 458
25759 917183 525
3710 990182 525
62200 917767 525
550542 668279 509
837560 964530 525
815637 962481 525
426728 886529 525
846467 960165 507
111389 502141 449
526523 530742 377
70372 817997 509
972483 973030 321
115159 612423 470
754241 968500 525
764483 789557 468
796411 929623 525
878909 890069 445
732022 868984 525
971728 998355 440
282260 322806 389
435035 508134 444
138485 486270 449
763412 811197 468
643936 946471 525
166970 835835 509
919225 944462 507
44451 504866 449
354383 375147 410
811164 970167 525
130797 922667 525
46385 993286 525
806134 969576 525
878905 975507 507
933463 946497 507
741483 884861 525
414547 760589 509
673247 703011 442
64174 300388 443
410108 974732 525
214119 229822 386
918478 946298 507
959650 961106 414
749889 796530 468
289278 527237 470
484357 721480 509
738888 850079 525
810083 932799 525
772754 897767 525
530932 605855 452
27158 814773 509
344200 993219 525
832950 981419 525
503638 582499 470
698939 789656 504
582063 905305 525
160969 524420 470
537355 610263 452
664892 937728 525
627390 982666 525
810479 842512 525
978600 997472 427
681454 953846 525
461263 954230 525
729353 795081 468
199481 842901 525
514358 522425 439
294035 644965 509
101223 891000 525
698895 877889 525
573525 837564 509
775714 780012 437
777804 832592 468
261492 531969 470
117651 701286 509
757377 919223 525
576051 745662 509
225245 800786 509
496764 651791 509
116078 430510 449
770486 893682 525
312391 762399 509
290799 748997 509
415715 512249 470
177449 893391 525
586082 649294 509
642863 766953 504
634631 972954 525
430999 913721 525
235695 897604 525
228236 843068 525
496642 928198 525
320775 443460 449
984140 989420 427
749132 973206 525
776828 785411 437
630506 767140 504
231766 969445 525
464065 953973 525
585174 684019 509
773069 874831 525
223001 492574 449
775837 932327 525
213614 345775 443
264864 609461 470
617899 828541 509
544368 561325 452
440110 936503 525
944912 968916 414
407360 714450 509
418791 704616 509
660247 845457 525
182126 759141 509
542258 560076 452
50724 580067 470
510692 827078 509
865503 938422 476
546473 687074 509
495456 855753 525
282447 558794 470
222381 857243 525
26072 297831 443
661667 982808 525
745052 790005 468
585968 810120 509
559265 614776 434
15237 56447 340
5722 887473 525
684577 692025 442
136033 756622 509
177920 861190 525
179549 408403 443
639907 784728 504
634335 999467 525
683068 740128 504
165526 765045 509
15131 393709 443
405881 628035 509
97944 609273 470
316441 847346 525
114931 836627 509
197434 236046 443
932910 939874 507
991184 991593 321
949866 976756 458
712449 717091 411
585288 654567 509
573384 882896 525
973356 979676 383
180003 582478 470
16438 809761 509
419658 523702 470
408 230773 443
270022 761464 509
686072 813580 504
929922 964912 507
682798 806055 504
931359 967804 507
658315 869554 525
814463 836701 450
294897 393733 441
147959 601083 470
407189 962059 525
274305 818280 509
324288 447424 449
790041 807503 468
830634 841155 525
472832 963219 525
909728 925512 476
743487 948165 525
408141 915756 525
352211 505293 449
341054 944364 525
265641 286333 407
818602 896219 525
940898 966819 414
857234 915734 476
477817 479434 351
233738 788091 509
784588 894290 525
708275 789618 468
151703 759267 509
328494 661925 509
810086 916533 525
822600 930922 525
569504 946895 525
633259 931183 525
334673 383119 441
272991 839600 525
597923 969889 525
554335 591583 434
224258 693993 509
331928 388335 441
321174 525134 470
123554 987068 525
545449 841441 525
356040 594744 470
549135 714147 509
711939 982972 525
305302 507482 449
530583 698440 509
775138 985616 525
537232 648599 509
10437 846771 525
477922 790207 509
127477 855932 525
896682 936582 476
485994 498642 426
827324 829101 419
81499 414106 449
215508 624143 470
968478 988704 458
329711 560237 470
523466 604055 452
609420 889124 525
107424 261306 443
237123 944986 525
505364 772112 509
445344 722420 509
343553 997627 525
449797 676008 509
696954 787292 504
455434 543033 470
634894 773120 504
753067 945955 525
583938 813400 509
640389 950047 525
214340 487246 449
650848 865912 525
97026 803261 509
820785 876595 525
350539 407429 436
630260 958906 525
753816 930377 525
835340 837385 344
